[
  {"username": "SSECURO", "password":"simone", "type":"pm" },
  {"username": "NDELLARAGIONE", "password":"nunzio", "type":"admin" },
  {"username": "FGIORDANO", "password":"fabio", "type":"admin" },
  {"username": "FCARDELLINI", "password":"francesco", "type":"admin" }
]
